[gd_scene load_steps=7 format=2]

[ext_resource path="res://Project/Scripts/SpaceGame.gd" type="Script" id=1]
[ext_resource path="res://Project/Scenes/SpaceEnemy.tscn" type="PackedScene" id=2]
[ext_resource path="res://Project/Background/vortex.png" type="Texture" id=3]
[ext_resource path="res://Project/Scenes/SpacePlayer.tscn" type="PackedScene" id=4]
[ext_resource path="res://Project/Fonts/KA1_FONT.tres" type="DynamicFont" id=5]

[sub_resource type="Curve2D" id=1]

bake_interval = 5.0
_data = {
"points": PoolVector2Array( 0, 0, 0, 0, 0, 0, 0, 0, 0, 0, 1280, 0, 0, 0, 0, 0, 1280, 0, 0, 0, 0, 0, 1280, 720, 0, 0, 0, 0, 0, 720, 0, 0, 0, 0, 0, 0 )
}

[node name="SpaceGame" type="Node" index="0"]

script = ExtResource( 1 )
enemy = ExtResource( 2 )

[node name="Background" type="Sprite" parent="." index="0"]

position = Vector2( 637.679, 359.432 )
scale = Vector2( 1.62468, 1.21794 )
z_index = -10
texture = ExtResource( 3 )
_sections_unfolded = [ "Z Index" ]

[node name="SpacePlayer" parent="." index="1" instance=ExtResource( 4 )]

position = Vector2( 640, 352 )
scale = Vector2( 0.5, 0.5 )
moveSpeed = 400

[node name="EnemyPath" type="Path2D" parent="." index="2"]

editor/display_folded = true
self_modulate = Color( 0.5, 0.6, 1, 0.7 )
curve = SubResource( 1 )

[node name="EnemySpawner" type="PathFollow2D" parent="EnemyPath" index="0"]

offset = 0.0
h_offset = 0.0
v_offset = 0.0
rotate = true
cubic_interp = true
loop = true
lookahead = 4.0

[node name="EnemySpawnTimer" type="Timer" parent="." index="3"]

process_mode = 1
wait_time = 2.5
one_shot = false
autostart = false

[node name="ScoreText" type="RichTextLabel" parent="." index="4"]

anchor_left = 0.0
anchor_top = 0.0
anchor_right = 0.0
anchor_bottom = 0.0
margin_left = 580.0
margin_top = 10.0
margin_right = 2740.0
margin_bottom = 330.0
rect_scale = Vector2( 0.25, 0.25 )
rect_pivot_offset = Vector2( 0, 0 )
rect_clip_content = true
mouse_filter = 0
mouse_default_cursor_shape = 0
size_flags_horizontal = 1
size_flags_vertical = 1
custom_fonts/normal_font = ExtResource( 5 )
custom_colors/default_color = Color( 1, 1, 1, 1 )
bbcode_enabled = false
bbcode_text = ""
visible_characters = -1
percent_visible = 1.0
meta_underlined = true
tab_size = 4
text = "Score: 0"
scroll_active = true
scroll_following = false
selection_enabled = false
override_selected_font_color = false
_sections_unfolded = [ "Rect", "custom_fonts" ]

[connection signal="timeout" from="EnemySpawnTimer" to="." method="_on_EnemySpawnTimer_timeout"]


