[gd_scene load_steps=5 format=2]

[ext_resource path="res://Project/Scripts/Player.gd" type="Script" id=1]
[ext_resource path="res://Project/Scenes/SpaceBullet.tscn" type="PackedScene" id=2]
[ext_resource path="res://Project/Sprites/MeanGreenMachine.png" type="Texture" id=3]

[sub_resource type="RectangleShape2D" id=1]

custom_solver_bias = 0.0
extents = Vector2( 44.2657, 43.0697 )

[node name="SpacePlayer" type="Area2D" groups=[
"Player",
]]

input_pickable = true
gravity_vec = Vector2( 0, 1 )
gravity = 98.0
linear_damp = 0.1
angular_damp = 1.0
collision_mask = 6
audio_bus_override = false
audio_bus_name = "Master"
script = ExtResource( 1 )
_sections_unfolded = [ "Collision" ]
moveSpeed = 250
rotateSpeed = 2.5
bullet = ExtResource( 2 )

[node name="CollisionShape2D" type="CollisionShape2D" parent="." index="0"]

position = Vector2( 0.397186, -0.397209 )
shape = SubResource( 1 )

[node name="Sprite" type="Sprite" parent="." index="1"]

position = Vector2( 0.149171, -2.2341 )
scale = Vector2( 2.89609, 2.89609 )
z_index = 2
texture = ExtResource( 3 )
_sections_unfolded = [ "Z Index" ]

[node name="BulletSpawn" type="Position2D" parent="." index="2"]


